Cleaning
…
#excluding NA/provisional data: No data starting on Aug 2025. Total provisional data starts at Jan 2024. 

monthly_f <- monthly_f %>% 
  filter(month_year < "2024-01-01")

#creating a binary indicator variable to say whether the bill was in effect 
 
monthly_f <- monthly_f %>% 
  mutate(bill8 = month_year > "2021-08-01") #all months after August

monthly_f %>% 
  slice(35:55)

## # A tibble: 21 × 3
##    Deaths month_year bill8
##     <dbl> <date>     <lgl>
##  1     19 2021-01-01 FALSE
##  2     20 2021-02-01 FALSE
##  3     25 2021-03-01 FALSE
##  4     24 2021-04-01 FALSE
##  5     23 2021-05-01 FALSE
##  6     22 2021-06-01 FALSE
##  7     25 2021-07-01 FALSE
##  8     20 2021-08-01 FALSE
##  9     35 2021-09-01 TRUE 
## 10     24 2021-10-01 TRUE 
## # ℹ 11 more rows
…
#excluding NA/provisional data: No data starting on Aug 2025. Total provisional data starts at Jan 2024. 

monthly_m <- monthly_m %>% 
  filter(month_year < "2024-01-01")

#creating a binary indicator variable to say whether the bill was in effect 
 
monthly_m <- monthly_m %>% 
  mutate(bill8 = month_year > "2021-08-01") #all months after August

monthly_m %>% 
  slice(35:55)

## # A tibble: 21 × 3
##    Deaths month_year bill8
##     <dbl> <date>     <lgl>
##  1    136 2020-11-01 FALSE
##  2    137 2020-12-01 FALSE
##  3    127 2021-01-01 FALSE
##  4     99 2021-02-01 FALSE
##  5    104 2021-03-01 FALSE
##  6    124 2021-04-01 FALSE
##  7    137 2021-05-01 FALSE
##  8    131 2021-06-01 FALSE
##  9    119 2021-07-01 FALSE
## 10    119 2021-08-01 FALSE
## # ℹ 11 more rows
…
