Exploration
…
#post-intervention slope term
intervention_time <- min(monthly_f$time[monthly_f$bill8])

monthly_f <- monthly_f %>%
  mutate(
    time_after = if_else(bill8, time - intervention_time + 1, 0)
  )

monthly_f %>% 
  group_by(time_after) %>% 
  slice(1:3) 

## # A tibble: 33 × 6
## # Groups:   time_after [31]
##    Deaths month_year  time bill8 month time_after
##     <int> <date>     <int> <lgl> <dbl>      <dbl>
##  1     16 2018-01-01     1 FALSE     1          0
##  2     16 2018-02-01     2 FALSE     2          0
##  3     17 2018-03-01     3 FALSE     3          0
##  4     25 2021-07-01    43 TRUE      7          1
##  5     20 2021-08-01    44 TRUE      8          2
##  6     35 2021-09-01    45 TRUE      9          3
##  7     24 2021-10-01    46 TRUE     10          4
##  8     16 2021-11-01    47 TRUE     11          5
##  9     16 2021-12-01    48 TRUE     12          6
## 10     27 2022-01-01    49 TRUE      1          7
## # ℹ 23 more rows
…
